…
    [1] 107

107 distinct zips in SD county

now do a zip code look up for the data we want

``` r
sd.eco <- reverse_zipcode(sd.zip)

sd.eco
```

    # A tibble: 107 × 24
       zipcode zipcode…¹ major…² post_…³ common_c…⁴ county state   lat   lng timez…⁵
       <chr>   <chr>     <chr>   <chr>       <blob> <chr>  <chr> <dbl> <dbl> <chr>  
     1 91901   Standard  Alpine  Alpine… <raw 18 B> San D… CA     32.8 -117. Pacific
     2 91902   Standard  Bonita  Bonita… <raw 18 B> San D… CA     32.7 -117. Pacific
     3 91905   Standard  Boulev… Boulev… <raw 21 B> San D… CA     32.7 -116. Pacific
     4 91906   Standard  Campo   Campo,… <raw 17 B> San D… CA     32.7 -116. Pacific
     5 91910   Standard  Chula … Chula … <raw 23 B> San D… CA     32.6 -117. Pacific
     6 91911   Standard  Chula … Chula … <raw 23 B> San D… CA     32.6 -117. Pacific
     7 91913   Standard  Chula … Chula … <raw 23 B> San D… CA     32.6 -117. Pacific
     8 91914   Standard  Chula … Chula … <raw 23 B> San D… CA     32.7 -117. Pacific
     9 91915   Standard  Chula … Chula … <raw 23 B> San D… CA     32.6 -117. Pacific
    10 91916   Standard  Descan… Descan… <raw 20 B> San D… CA     32.9 -117. Pacific
    # … with 97 more rows, 14 more variables: radius_in_miles <dbl>,
    #   area_code_list <blob>, population <int>, population_density <dbl>,
    #   land_area_in_sqmi <dbl>, water_area_in_sqmi <dbl>, housing_units <int>,
    #   occupied_housing_units <int>, median_home_value <int>,
    #   median_household_income <int>, bounds_west <dbl>, bounds_east <dbl>,
    #   bounds_north <dbl>, bounds_south <dbl>, and abbreviated variable names
    #   ¹​zipcode_type, ²​major_city, ³​post_office_city, ⁴​common_city_list, …
…
``` r
arrange(sd.eco, desc(median_home_value))
```

    # A tibble: 107 × 24
       zipcode zipcode…¹ major…² post_…³ common_c…⁴ county state   lat   lng timez…⁵
       <chr>   <chr>     <chr>   <chr>       <blob> <chr>  <chr> <dbl> <dbl> <chr>  
     1 92014   Standard  Del Mar Del Ma… <raw 19 B> San D… CA     33.0 -117. Pacific
     2 92037   Standard  La Jol… La Jol… <raw 20 B> San D… CA     32.8 -117. Pacific
     3 92067   PO Box    Rancho… Rancho… <raw 33 B> San D… CA     33.0 -117. Pacific
     4 92118   Standard  Corona… Corona… <raw 33 B> San D… CA     32.6 -117. Pacific
     5 92145   Unique    San Di… San Di… <raw 21 B> San D… CA     32.9 -117. Pacific
     6 92091   Standard  Rancho… Rancho… <raw 33 B> San D… CA     33   -117. Pacific
     7 92075   Standard  Solana… Solana… <raw 24 B> San D… CA     33.0 -117. Pacific
     8 92106   Standard  San Di… San Di… <raw 21 B> San D… CA     32.7 -117. Pacific
     9 92130   Standard  San Di… San Di… <raw 21 B> San D… CA     33.0 -117. Pacific
    10 92007   Standard  Cardif… Cardif… <raw 35 B> San D… CA     33.0 -117. Pacific
    # … with 97 more rows, 14 more variables: radius_in_miles <dbl>,
    #   area_code_list <blob>, population <int>, population_density <dbl>,
    #   land_area_in_sqmi <dbl>, water_area_in_sqmi <dbl>, housing_units <int>,
    #   occupied_housing_units <int>, median_home_value <int>,
    #   median_household_income <int>, bounds_west <dbl>, bounds_east <dbl>,
    #   bounds_north <dbl>, bounds_south <dbl>, and abbreviated variable names
    #   ¹​zipcode_type, ²​major_city, ³​post_office_city, ⁴​common_city_list, …

least expensive

``` r
arrange(sd.eco, median_home_value)
```

    # A tibble: 107 × 24
       zipcode zipcode…¹ major…² post_…³ common_c…⁴ county state   lat   lng timez…⁵
       <chr>   <chr>     <chr>   <chr>       <blob> <chr>  <chr> <dbl> <dbl> <chr>  
     1 91931   PO Box    Guatay  Guatay… <raw 18 B> San D… CA     32.8 -117. Pacific
     2 91963   Standard  Potrero Potrer… <raw 19 B> San D… CA     32.6 -117. Pacific
     3 91934   Standard  Jacumba Jacumb… <raw 19 B> San D… CA     32.6 -116. Pacific
     4 92086   Standard  Warner… Warner… <raw 31 B> San D… CA     33.3 -117. Pacific
     5 91917   Standard  Dulzura Dulzur… <raw 19 B> San D… CA     32.7 -117. Pacific
     6 91906   Standard  Campo   Campo,… <raw 17 B> San D… CA     32.7 -116. Pacific
     7 92004   Standard  Borreg… Borreg… <raw 32 B> San D… CA     33.1 -116. Pacific
     8 92113   Standard  San Di… San Di… <raw 21 B> San D… CA     32.7 -117. Pacific
     9 92173   Standard  San Ys… San Ys… <raw 31 B> San D… CA     32.6 -117. Pacific
    10 91916   Standard  Descan… Descan… <raw 20 B> San D… CA     32.9 -117. Pacific
    # … with 97 more rows, 14 more variables: radius_in_miles <dbl>,
    #   area_code_list <blob>, population <int>, population_density <dbl>,
    #   land_area_in_sqmi <dbl>, water_area_in_sqmi <dbl>, housing_units <int>,
    #   occupied_housing_units <int>, median_home_value <int>,
    #   median_household_income <int>, bounds_west <dbl>, bounds_east <dbl>,
    #   bounds_north <dbl>, bounds_south <dbl>, and abbreviated variable names
    #   ¹​zipcode_type, ²​major_city, ³​post_office_city, ⁴​common_city_list, …
…
